<?xml version="1.0" encoding="UTF-8"?>
<svg width="19px" height="18px" viewBox="0 0 19 18" version="1.1" xmlns="http://www.w3.org/2000/svg" xmlns:xlink="http://www.w3.org/1999/xlink">
    <title>电脑 显示器</title>
    <defs>
        <linearGradient x1="0%" y1="-56.1342577%" x2="100%" y2="93.8231774%" id="linearGradient-1">
            <stop stop-color="#B7C4DD" offset="0%"></stop>
            <stop stop-color="#8192B8" offset="100%"></stop>
        </linearGradient>
        <path d="M14.9364236,0 C15.9604572,0 16.7906004,0.830143197 16.7906004,1.85417673 L16.7906004,1.85417673 L16.7906004,10.576018 C16.7906004,10.6539709 16.7857899,10.7308003 16.7764495,10.8062255 L15.554,10.805 L15.5544825,2.02368793 C15.5544825,1.85658667 15.5128078,1.69496063 15.4367928,1.56137286 L15.3734573,1.46679176 C15.2575487,1.31909372 15.100343,1.23611782 14.9364236,1.23611782 L14.9364236,1.23611782 L1.85417673,1.23611782 C1.51283222,1.23611782 1.23611782,1.58872497 1.23611782,2.02368793 L1.23611782,2.02368793 L1.23611782,11.1765653 L11.228,11.176 L11.228,12.43 L10.2659585,12.4301948 L10.2659585,14.4831804 L11.5453404,14.4831804 C11.8866849,14.4831804 12.1633993,14.7598948 12.1633993,15.1012393 C12.1633993,15.4425838 11.8866849,15.7192982 11.5453404,15.7192982 L11.5453404,15.7192982 L5.24422984,15.7192982 C5.02341865,15.7192982 4.81938069,15.6014969 4.70897509,15.4102688 C4.5985695,15.2190407 4.5985695,14.983438 4.70897509,14.7922099 C4.81938069,14.6009818 5.02341865,14.4831804 5.24422984,14.4831804 L5.24422984,14.4831804 L6.52361178,14.4831804 L6.52361178,12.4301948 L1.85417673,12.4301948 C0.830143197,12.4301948 0,11.6000516 0,10.576018 L0,10.576018 L0,1.85417673 C0,0.830143197 0.830143197,0 1.85417673,0 L1.85417673,0 Z M14.7723475,9.1573475 L14.7718043,11.1663475 L16.7822952,11.1672952 L16.7822952,12.2978907 L14.7718043,12.2973475 L14.7723475,14.3078384 L13.641752,14.3078384 L13.6408043,12.2973475 L11.6318043,12.2978907 L11.6318043,11.1672952 L13.6408043,11.1663475 L13.641752,9.1573475 L14.7723475,9.1573475 Z" id="path-2"></path>
        <filter x="-8.9%" y="-9.5%" width="117.9%" height="119.1%" filterUnits="objectBoundingBox" id="filter-3">
            <feOffset dx="0" dy="0" in="SourceAlpha" result="shadowOffsetOuter1"></feOffset>
            <feGaussianBlur stdDeviation="0.5" in="shadowOffsetOuter1" result="shadowBlurOuter1"></feGaussianBlur>
            <feColorMatrix values="0 0 0 0 0.250690338   0 0 0 0 0.371346397   0 0 0 0 0.612658514  0 0 0 1 0" type="matrix" in="shadowBlurOuter1"></feColorMatrix>
        </filter>
    </defs>
    <g id="RAV1-自定义" stroke="none" stroke-width="1" fill="none" fill-rule="evenodd">
        <g id="房间详情备份" transform="translate(-237.000000, -475.000000)" fill-rule="nonzero">
            <g id="电脑-显示器" transform="translate(238.000000, 476.000000)">
                <g id="形状">
                    <use fill="black" fill-opacity="1" filter="url(#filter-3)" xlink:href="#path-2"></use>
                    <use fill="url(#linearGradient-1)" xlink:href="#path-2"></use>
                </g>
            </g>
        </g>
    </g>
</svg>