<?xml version="1.0" encoding="UTF-8"?>
<svg width="280px" height="80px" viewBox="0 0 280 80" version="1.1" xmlns="http://www.w3.org/2000/svg" xmlns:xlink="http://www.w3.org/1999/xlink">
    <title>编组 9</title>
    <defs>
        <radialGradient cx="50%" cy="50%" fx="50%" fy="50%" r="263.195476%" gradientTransform="translate(0.500000,0.500000),scale(0.231496,1.000000),translate(-0.500000,-0.500000)" id="radialGradient-1">
            <stop stop-color="#EFBB74" offset="0%"></stop>
            <stop stop-color="#C08028" offset="100%"></stop>
        </radialGradient>
        <path d="M0,1 C-1.78657678e-16,0.44771525 0.44771525,2.12475365e-16 1,0 L258.184211,0 C258.736495,9.5692398e-18 259.184211,0.44771525 259.184211,1 L259.184211,21 L248.184211,30.5 L259.184211,40 L259.184211,59 C259.184211,59.5522847 258.736495,60 258.184211,60 L1,60 C0.44771525,60 1.78657678e-16,59.5522847 0,59 L2.29150032e-13,40 L11,30.5 L2.27373675e-13,21 L0,1 Z" id="path-2"></path>
        <filter x="-5.8%" y="-25.0%" width="111.6%" height="150.0%" filterUnits="objectBoundingBox" id="filter-4">
            <feOffset dx="0" dy="0" in="SourceAlpha" result="shadowOffsetOuter1"></feOffset>
            <feGaussianBlur stdDeviation="5" in="shadowOffsetOuter1" result="shadowBlurOuter1"></feGaussianBlur>
            <feColorMatrix values="0 0 0 0 0   0 0 0 0 0   0 0 0 0 0  0 0 0 0.5 0" type="matrix" in="shadowBlurOuter1"></feColorMatrix>
        </filter>
        <linearGradient x1="106.194715%" y1="50%" x2="-8.3899632%" y2="49.9991462%" id="linearGradient-5">
            <stop stop-color="#FFFFFF" stop-opacity="0" offset="0%"></stop>
            <stop stop-color="#FFFFFF" stop-opacity="0.706020542" offset="54.6140288%"></stop>
            <stop stop-color="#FFFFFF" stop-opacity="0" offset="100%"></stop>
        </linearGradient>
        <rect id="path-6" x="203" y="53" width="3" height="8"></rect>
        <filter x="-166.7%" y="-62.5%" width="433.3%" height="225.0%" filterUnits="objectBoundingBox" id="filter-7">
            <feGaussianBlur stdDeviation="5" in="SourceAlpha" result="shadowBlurInner1"></feGaussianBlur>
            <feOffset dx="0" dy="0" in="shadowBlurInner1" result="shadowOffsetInner1"></feOffset>
            <feComposite in="shadowOffsetInner1" in2="SourceAlpha" operator="arithmetic" k2="-1" k3="1" result="shadowInnerInner1"></feComposite>
            <feColorMatrix values="0 0 0 0 0   0 0 0 0 0   0 0 0 0 0  0 0 0 0.5 0" type="matrix" in="shadowInnerInner1"></feColorMatrix>
        </filter>
        <rect id="path-8" x="37" y="-2" width="3" height="8"></rect>
        <filter x="-166.7%" y="-62.5%" width="433.3%" height="225.0%" filterUnits="objectBoundingBox" id="filter-9">
            <feGaussianBlur stdDeviation="5" in="SourceAlpha" result="shadowBlurInner1"></feGaussianBlur>
            <feOffset dx="0" dy="0" in="shadowBlurInner1" result="shadowOffsetInner1"></feOffset>
            <feComposite in="shadowOffsetInner1" in2="SourceAlpha" operator="arithmetic" k2="-1" k3="1" result="shadowInnerInner1"></feComposite>
            <feColorMatrix values="0 0 0 0 0   0 0 0 0 0   0 0 0 0 0  0 0 0 0.5 0" type="matrix" in="shadowInnerInner1"></feColorMatrix>
        </filter>
        <rect id="path-10" x="210" y="53" width="3" height="8"></rect>
        <filter x="-166.7%" y="-62.5%" width="433.3%" height="225.0%" filterUnits="objectBoundingBox" id="filter-11">
            <feGaussianBlur stdDeviation="5" in="SourceAlpha" result="shadowBlurInner1"></feGaussianBlur>
            <feOffset dx="0" dy="0" in="shadowBlurInner1" result="shadowOffsetInner1"></feOffset>
            <feComposite in="shadowOffsetInner1" in2="SourceAlpha" operator="arithmetic" k2="-1" k3="1" result="shadowInnerInner1"></feComposite>
            <feColorMatrix values="0 0 0 0 0   0 0 0 0 0   0 0 0 0 0  0 0 0 0.5 0" type="matrix" in="shadowInnerInner1"></feColorMatrix>
        </filter>
        <rect id="path-12" x="44" y="-2" width="3" height="8"></rect>
        <filter x="-166.7%" y="-62.5%" width="433.3%" height="225.0%" filterUnits="objectBoundingBox" id="filter-13">
            <feGaussianBlur stdDeviation="5" in="SourceAlpha" result="shadowBlurInner1"></feGaussianBlur>
            <feOffset dx="0" dy="0" in="shadowBlurInner1" result="shadowOffsetInner1"></feOffset>
            <feComposite in="shadowOffsetInner1" in2="SourceAlpha" operator="arithmetic" k2="-1" k3="1" result="shadowInnerInner1"></feComposite>
            <feColorMatrix values="0 0 0 0 0   0 0 0 0 0   0 0 0 0 0  0 0 0 0.5 0" type="matrix" in="shadowInnerInner1"></feColorMatrix>
        </filter>
        <rect id="path-14" x="217" y="53" width="3" height="8"></rect>
        <filter x="-166.7%" y="-62.5%" width="433.3%" height="225.0%" filterUnits="objectBoundingBox" id="filter-15">
            <feGaussianBlur stdDeviation="5" in="SourceAlpha" result="shadowBlurInner1"></feGaussianBlur>
            <feOffset dx="0" dy="0" in="shadowBlurInner1" result="shadowOffsetInner1"></feOffset>
            <feComposite in="shadowOffsetInner1" in2="SourceAlpha" operator="arithmetic" k2="-1" k3="1" result="shadowInnerInner1"></feComposite>
            <feColorMatrix values="0 0 0 0 0   0 0 0 0 0   0 0 0 0 0  0 0 0 0.5 0" type="matrix" in="shadowInnerInner1"></feColorMatrix>
        </filter>
        <rect id="path-16" x="51" y="-2" width="3" height="8"></rect>
        <filter x="-166.7%" y="-62.5%" width="433.3%" height="225.0%" filterUnits="objectBoundingBox" id="filter-17">
            <feGaussianBlur stdDeviation="5" in="SourceAlpha" result="shadowBlurInner1"></feGaussianBlur>
            <feOffset dx="0" dy="0" in="shadowBlurInner1" result="shadowOffsetInner1"></feOffset>
            <feComposite in="shadowOffsetInner1" in2="SourceAlpha" operator="arithmetic" k2="-1" k3="1" result="shadowInnerInner1"></feComposite>
            <feColorMatrix values="0 0 0 0 0   0 0 0 0 0   0 0 0 0 0  0 0 0 0.5 0" type="matrix" in="shadowInnerInner1"></feColorMatrix>
        </filter>
        <text id="text-18" font-family="PingFangSC-Medium, PingFang SC" font-size="22" font-weight="400" fill="#FFFFFF">
            <tspan x="97" y="38">已准备</tspan>
        </text>
        <filter x="-5.3%" y="-8.3%" width="110.6%" height="123.3%" filterUnits="objectBoundingBox" id="filter-19">
            <feOffset dx="0" dy="1" in="SourceAlpha" result="shadowOffsetOuter1"></feOffset>
            <feGaussianBlur stdDeviation="1" in="shadowOffsetOuter1" result="shadowBlurOuter1"></feGaussianBlur>
            <feColorMatrix values="0 0 0 0 0.391304348   0 0 0 0 0.273766063   0 0 0 0 0.114520646  0 0 0 1 0" type="matrix" in="shadowBlurOuter1"></feColorMatrix>
        </filter>
    </defs>
    <g id="修改" stroke="none" stroke-width="1" fill="none" fill-rule="evenodd">
        <g id="房间详情-交互" transform="translate(-1282.000000, -688.000000)">
            <g id="编组-9" transform="translate(1292.000000, 698.000000)">
                <g id="形状结合-2">
                    <mask id="mask-3" fill="white">
                        <use xlink:href="#path-2"></use>
                    </mask>
                    <g id="蒙版">
                        <use fill="black" fill-opacity="1" filter="url(#filter-4)" xlink:href="#path-2"></use>
                        <use fill="url(#radialGradient-1)" fill-rule="evenodd" xlink:href="#path-2"></use>
                    </g>
                    <rect id="矩形备份-21" fill="url(#linearGradient-5)" opacity="0.1" mask="url(#mask-3)" x="9" y="24" width="242" height="1" rx="0.5"></rect>
                    <rect id="矩形备份-23" fill="url(#linearGradient-5)" opacity="0.1" mask="url(#mask-3)" x="9" y="37" width="242" height="1" rx="0.5"></rect>
                    <rect id="矩形备份-25" fill="url(#linearGradient-5)" opacity="0.1" mask="url(#mask-3)" x="9" y="50" width="242" height="1" rx="0.5"></rect>
                    <rect id="矩形备份-22" fill="url(#linearGradient-5)" opacity="0.1" mask="url(#mask-3)" x="9" y="9" width="242" height="1" rx="0.5"></rect>
                    <rect id="矩形备份-22" fill="url(#linearGradient-5)" opacity="0.1" mask="url(#mask-3)" transform="translate(24.000000, 20.500000) rotate(90.000000) translate(-24.000000, -20.500000) " x="-97" y="20" width="242" height="1" rx="0.5"></rect>
                    <rect id="矩形备份-28" fill="url(#linearGradient-5)" opacity="0.1" mask="url(#mask-3)" transform="translate(69.500000, 22.000000) rotate(90.000000) translate(-69.500000, -22.000000) " x="-51.5" y="21.5" width="242" height="1" rx="0.5"></rect>
                    <rect id="矩形备份-31" fill="url(#linearGradient-5)" opacity="0.1" mask="url(#mask-3)" transform="translate(114.500000, 22.000000) rotate(90.000000) translate(-114.500000, -22.000000) " x="-6.5" y="21.5" width="242" height="1" rx="0.5"></rect>
                    <rect id="矩形备份-34" fill="url(#linearGradient-5)" opacity="0.1" mask="url(#mask-3)" transform="translate(159.500000, 22.000000) rotate(90.000000) translate(-159.500000, -22.000000) " x="38.5" y="21.5" width="242" height="1" rx="0.5"></rect>
                    <rect id="矩形备份-37" fill="url(#linearGradient-5)" opacity="0.1" mask="url(#mask-3)" transform="translate(204.500000, 22.000000) rotate(90.000000) translate(-204.500000, -22.000000) " x="83.5" y="21.5" width="242" height="1" rx="0.5"></rect>
                    <rect id="矩形备份-40" fill="url(#linearGradient-5)" opacity="0.1" mask="url(#mask-3)" transform="translate(248.500000, 22.000000) rotate(90.000000) translate(-248.500000, -22.000000) " x="127.5" y="21.5" width="242" height="1" rx="0.5"></rect>
                    <rect id="矩形备份-26" fill="url(#linearGradient-5)" opacity="0.1" mask="url(#mask-3)" transform="translate(39.000000, 20.500000) rotate(90.000000) translate(-39.000000, -20.500000) " x="-82" y="20" width="242" height="1" rx="0.5"></rect>
                    <rect id="矩形备份-29" fill="url(#linearGradient-5)" opacity="0.1" mask="url(#mask-3)" transform="translate(84.500000, 22.000000) rotate(90.000000) translate(-84.500000, -22.000000) " x="-36.5" y="21.5" width="242" height="1" rx="0.5"></rect>
                    <rect id="矩形备份-32" fill="url(#linearGradient-5)" opacity="0.1" mask="url(#mask-3)" transform="translate(129.500000, 22.000000) rotate(90.000000) translate(-129.500000, -22.000000) " x="8.5" y="21.5" width="242" height="1" rx="0.5"></rect>
                    <rect id="矩形备份-35" fill="url(#linearGradient-5)" opacity="0.1" mask="url(#mask-3)" transform="translate(174.500000, 22.000000) rotate(90.000000) translate(-174.500000, -22.000000) " x="53.5" y="21.5" width="242" height="1" rx="0.5"></rect>
                    <rect id="矩形备份-38" fill="url(#linearGradient-5)" opacity="0.1" mask="url(#mask-3)" transform="translate(219.500000, 22.000000) rotate(90.000000) translate(-219.500000, -22.000000) " x="98.5" y="21.5" width="242" height="1" rx="0.5"></rect>
                    <rect id="矩形备份-41" fill="url(#linearGradient-5)" opacity="0.1" mask="url(#mask-3)" transform="translate(263.500000, 22.000000) rotate(90.000000) translate(-263.500000, -22.000000) " x="142.5" y="21.5" width="242" height="1" rx="0.5"></rect>
                    <rect id="矩形备份-27" fill="url(#linearGradient-5)" opacity="0.1" mask="url(#mask-3)" transform="translate(54.000000, 20.500000) rotate(90.000000) translate(-54.000000, -20.500000) " x="-67" y="20" width="242" height="1" rx="0.5"></rect>
                    <rect id="矩形备份-30" fill="url(#linearGradient-5)" opacity="0.1" mask="url(#mask-3)" transform="translate(99.500000, 22.000000) rotate(90.000000) translate(-99.500000, -22.000000) " x="-21.5" y="21.5" width="242" height="1" rx="0.5"></rect>
                    <rect id="矩形备份-33" fill="url(#linearGradient-5)" opacity="0.1" mask="url(#mask-3)" transform="translate(144.500000, 22.000000) rotate(90.000000) translate(-144.500000, -22.000000) " x="23.5" y="21.5" width="242" height="1" rx="0.5"></rect>
                    <rect id="矩形备份-36" fill="url(#linearGradient-5)" opacity="0.1" mask="url(#mask-3)" transform="translate(189.500000, 22.000000) rotate(90.000000) translate(-189.500000, -22.000000) " x="68.5" y="21.5" width="242" height="1" rx="0.5"></rect>
                    <rect id="矩形备份-39" fill="url(#linearGradient-5)" opacity="0.1" mask="url(#mask-3)" transform="translate(234.500000, 22.000000) rotate(90.000000) translate(-234.500000, -22.000000) " x="113.5" y="21.5" width="242" height="1" rx="0.5"></rect>
                    <rect id="矩形备份-24" fill="#FFFFFF" opacity="0.1" mask="url(#mask-3)" x="7" y="60" width="242" height="1" rx="0.5"></rect>
                    <g id="矩形" mask="url(#mask-3)">
                        <use fill="#7C531B" fill-rule="evenodd" xlink:href="#path-6"></use>
                        <use fill="black" fill-opacity="1" filter="url(#filter-7)" xlink:href="#path-6"></use>
                    </g>
                    <g id="矩形备份-19" mask="url(#mask-3)">
                        <use fill="#462F0F" fill-rule="evenodd" xlink:href="#path-8"></use>
                        <use fill="black" fill-opacity="1" filter="url(#filter-9)" xlink:href="#path-8"></use>
                    </g>
                    <g id="矩形备份-17" mask="url(#mask-3)">
                        <use fill="#7C531B" fill-rule="evenodd" xlink:href="#path-10"></use>
                        <use fill="black" fill-opacity="1" filter="url(#filter-11)" xlink:href="#path-10"></use>
                    </g>
                    <g id="矩形备份-20" mask="url(#mask-3)">
                        <use fill="#462F0F" fill-rule="evenodd" xlink:href="#path-12"></use>
                        <use fill="black" fill-opacity="1" filter="url(#filter-13)" xlink:href="#path-12"></use>
                    </g>
                    <g id="矩形备份-18" mask="url(#mask-3)">
                        <use fill="#7C531B" fill-rule="evenodd" xlink:href="#path-14"></use>
                        <use fill="black" fill-opacity="1" filter="url(#filter-15)" xlink:href="#path-14"></use>
                    </g>
                    <g id="矩形备份-43" mask="url(#mask-3)">
                        <use fill="#462F0F" fill-rule="evenodd" xlink:href="#path-16"></use>
                        <use fill="black" fill-opacity="1" filter="url(#filter-17)" xlink:href="#path-16"></use>
                    </g>
                </g>
                <polygon id="三角形" fill="#CA8D3A" transform="translate(256.000000, 30.000000) scale(-1, 1) rotate(90.000000) translate(-256.000000, -30.000000) " points="256 27 261 33 251 33"></polygon>
                <polygon id="三角形备份" fill="#CA8D3A" transform="translate(3.000000, 30.000000) rotate(90.000000) translate(-3.000000, -30.000000) " points="3 27 8 33 -2 33"></polygon>
                <g id="已准备" fill="#FFFFFF" fill-opacity="1">
                    <use filter="url(#filter-19)" xlink:href="#text-18"></use>
                    <use xlink:href="#text-18"></use>
                </g>
            </g>
        </g>
    </g>
</svg>