<?xml version="1.0" encoding="UTF-8"?>
<svg width="14px" height="9px" viewBox="0 0 14 9" version="1.1" xmlns="http://www.w3.org/2000/svg" xmlns:xlink="http://www.w3.org/1999/xlink">
    <title>形状</title>
    <defs>
        <filter color-interpolation-filters="auto" id="filter-1">
            <feColorMatrix in="SourceGraphic" type="matrix" values="0 0 0 0 0.418274 0 0 0 0 0.618869 0 0 0 0 1.000000 0 0 0 1.000000 0"></feColorMatrix>
        </filter>
    </defs>
    <g id="首页" stroke="none" stroke-width="1" fill="none" fill-rule="evenodd" opacity="0.6">
        <g id="资讯详情" transform="translate(-1019.000000, -185.000000)">
            <g id="编组-14" transform="translate(83.000000, 90.000000)">
                <g id="编组-11" transform="translate(814.000000, 0.000000)">
                    <g id="眼睛-开" transform="translate(14.000000, 54.000000)" filter="url(#filter-1)">
                        <g transform="translate(108.000000, 41.000000)">
                            <path d="M7,0 C10.6101739,0 14,2.2542 14,4.5 C14,6.7458 10.6101739,9 7,9 C3.38982609,9 0,6.7458 0,4.5 C0,2.2542 3.38982609,0 7,0 Z M7,0.9 C3.8353913,0.9 0.913043478,2.8434 0.913043478,4.5 C0.913043478,6.1566 3.8353913,8.1 7,8.1 C10.1646087,8.1 13.0869565,6.1566 13.0869565,4.5 C13.0869565,2.8434 10.1646087,0.9 7,0.9 Z M7,1.95 C7.92423056,1.95 8.77825482,2.43602724 9.2403701,3.22499999 C9.70248538,4.01397274 9.70248538,4.98602726 9.2403701,5.77500001 C8.77825482,6.56397276 7.92423056,7.05 7,7.05 C5.57126338,7.05 4.41304352,5.9083261 4.41304352,4.5 C4.41304352,3.0916739 5.57126338,1.95 7,1.95 Z M7,2.85 C6.07552335,2.85 5.32608696,3.58873016 5.32608696,4.5 C5.32608696,5.41126984 6.07552335,6.15 7,6.15 C7.92447665,6.15 8.67391304,5.41126984 8.67391304,4.5 C8.67391304,3.58873016 7.92447665,2.85 7,2.85 L7,2.85 Z" id="形状" fill="#131415" fill-rule="nonzero"></path>
                        </g>
                    </g>
                </g>
            </g>
        </g>
    </g>
</svg>