<?xml version="1.0" encoding="UTF-8"?>
<svg width="18px" height="16px" viewBox="0 0 18 16" version="1.1" xmlns="http://www.w3.org/2000/svg" xmlns:xlink="http://www.w3.org/1999/xlink">
    <title>形状</title>
    <defs>
        <filter color-interpolation-filters="auto" id="filter-1">
            <feColorMatrix in="SourceGraphic" type="matrix" values="0 0 0 0 1.000000 0 0 0 0 1.000000 0 0 0 0 1.000000 0 0 0 1.000000 0"></feColorMatrix>
        </filter>
    </defs>
    <g id="大厅" stroke="none" stroke-width="1" fill="none" fill-rule="evenodd">
        <g id="音效设置" transform="translate(-779.000000, -266.000000)">
            <g id="编组-5" transform="translate(440.000000, 185.000000)">
                <g id="声音-开" transform="translate(59.000000, 55.000000)" filter="url(#filter-1)">
                    <g transform="translate(280.000000, 26.000000)">
                        <path d="M1.63636295,12.5736749 C0.732624648,12.5736749 0,11.8290552 0,10.9105204 L0,5.08947963 C0,4.17094476 0.732624648,3.42632513 1.63636295,3.42632513 L4.90908885,3.42632513 L8.33726923,0.406452353 C8.82142319,-0.0200969221 9.50597294,-0.12020842 10.0888097,0.150299542 C10.6716465,0.420807504 11.0454499,1.01216111 11.0454499,1.66338136 L11.0454499,14.3366186 C11.0454499,14.9878389 10.6716465,15.5791925 10.0888097,15.8497005 C9.50597294,16.1202084 8.82142319,16.0200969 8.33726923,15.5935476 L4.90908885,12.5736749 L1.63636295,12.5736749 Z M15.3159481,2.10827519 C17.0144507,3.489495 18.0022254,5.58124285 17.9999962,7.79210569 C18.0022254,10.0029685 17.0144507,12.0947164 15.3159481,13.4759362 C15.1449479,13.6154218 14.9137212,13.6515906 14.7093689,13.5708183 C14.5050167,13.4900459 14.3585848,13.3046035 14.3252327,13.0843456 C14.2918807,12.8640876 14.3766755,12.6424764 14.5476757,12.5029908 C15.9560967,11.3586555 16.7751988,9.62476364 16.7731293,7.79210569 C16.7731293,5.93644106 15.9447206,4.2204814 14.5476757,3.08122057 C14.3766755,2.94173497 14.2918807,2.72012379 14.3252327,2.49986581 C14.3585848,2.27960784 14.5050167,2.09416549 14.7093689,2.01339312 C14.9137212,1.93262075 15.1449479,1.96878959 15.3159481,2.10827519 L15.3159481,2.10827519 Z M13.0189036,4.56849648 C14.2077213,5.36265276 14.9318119,6.62249229 14.9318119,8 C14.9318119,9.37750771 14.2077213,10.6373472 13.0189036,11.4315035 C12.8357716,11.5596514 12.5987637,11.5770923 12.3993793,11.477093 C12.199995,11.3770938 12.0694284,11.1752995 12.0580862,10.9496149 C12.046744,10.7239304 12.1564006,10.5096647 12.3447221,10.3895372 C13.2013581,9.81699629 13.7045397,8.94051387 13.7045397,8 C13.7045397,7.05948613 13.200949,6.18258792 12.3447221,5.61046278 C12.1564006,5.49033533 12.046744,5.27606956 12.0580862,5.05038505 C12.0694284,4.82470054 12.199995,4.62290623 12.3993793,4.52290696 C12.5987637,4.42290769 12.8357716,4.44034862 13.0189036,4.56849648 L13.0189036,4.56849648 Z" id="形状" fill="#131415" fill-rule="nonzero"></path>
                    </g>
                </g>
            </g>
        </g>
    </g>
</svg>